{
  "count": 27,
  "next": "http://localhost:8071/api/v1.0/teams/?page=2",
  "previous": null,
  "results": [
    {
      "id": "d81e7edc-2f67-4499-b81b-468d9a22ef2c",
      "name": "P",
      "accesses": [
        "c0b6ce20-d5cf-4fa1-9bcd-c49c6dfd0825"
      ],
      "abilities": {
        "get": true,
        "patch": true,
        "put": true,
        "delete": true,
        "manage_accesses": true
      },
      "slug": "p",
      "created_at": "2024-09-25T13:26:06.280708Z",
      "updated_at": "2024-09-25T13:26:06.280744Z"
    },
    {
      "id": "549ca8f9-00a0-44ab-abb8-1da4e4d6c55b",
      "name": "O",
      "accesses": [
        "04972d33-5858-43f2-8356-d61e28cc7be2"
      ],
      "abilities": {
        "get": true,
        "patch": true,
        "put": true,
        "delete": true,
        "manage_accesses": true
      },
      "slug": "o",
      "created_at": "2024-09-25T13:25:38.430371Z",
      "updated_at": "2024-09-25T13:25:38.430385Z"
    },
    {
      "id": "8ecc2a6f-4237-46b9-ba51-63b0035639d5",
      "name": "N",
      "accesses": [
        "ecfa0020-48b6-4b55-84ed-c546e73b648c"
      ],
      "abilities": {
        "get": true,
        "patch": true,
        "put": true,
        "delete": true,
        "manage_accesses": true
      },
      "slug": "n",
      "created_at": "2024-09-25T13:25:36.037160Z",
      "updated_at": "2024-09-25T13:25:36.037232Z"
    },
    {
      "id": "9572bed8-b6d1-4591-ad43-55830b9432ca",
      "name": "M",
      "accesses": [
        "d36d5cc8-ce4d-4595-a116-1383972393b8"
      ],
      "abilities": {
        "get": true,
        "patch": true,
        "put": true,
        "delete": true,
        "manage_accesses": true
      },
      "slug": "m",
      "created_at": "2024-09-25T13:25:33.137514Z",
      "updated_at": "2024-09-25T13:25:33.137530Z"
    },
    {
      "id": "121324da-0fca-4dda-a098-a7644f0407c2",
      "name": "L",
      "accesses": [
        "79c6334b-a81a-4d8f-982f-bdb3a740cc9f"
      ],
      "abilities": {
        "get": true,
        "patch": true,
        "put": true,
        "delete": true,
        "manage_accesses": true
      },
      "slug": "l",
      "created_at": "2024-09-25T13:25:30.452757Z",
      "updated_at": "2024-09-25T13:25:30.452784Z"
    },
    {
      "id": "5aa9abe7-caf6-4975-84c6-c924bdc6f855",
      "name": "K",
      "accesses": [
        "314ca309-ba8b-4b4c-9fc6-3d4ec473c707"
      ],
      "abilities": {
        "get": true,
        "patch": true,
        "put": true,
        "delete": true,
        "manage_accesses": true
      },
      "slug": "k",
      "created_at": "2024-09-25T13:25:26.792815Z",
      "updated_at": "2024-09-25T13:25:26.792848Z"
    },
    {
      "id": "3c16417a-66ef-427e-9f4b-44ca97eadc72",
      "name": "J",
      "accesses": [
        "711bf8a3-6dbb-4240-87a8-93bac0426574"
      ],
      "abilities": {
        "get": true,
        "patch": true,
        "put": true,
        "delete": true,
        "manage_accesses": true
      },
      "slug": "j",
      "created_at": "2024-09-25T13:25:23.231925Z",
      "updated_at": "2024-09-25T13:25:23.231942Z"
    },
    {
      "id": "caf5f820-7b6f-4f61-b37d-2d5791b5fd5c",
      "name": "I",
      "accesses": [
        "2add182d-21ab-4706-a08d-d80a0f3c7065"
      ],
      "abilities": {
        "get": true,
        "patch": true,
        "put": true,
        "delete": true,
        "manage_accesses": true
      },
      "slug": "i",
      "created_at": "2024-09-25T13:25:17.373514Z",
      "updated_at": "2024-09-25T13:25:17.373566Z"
    },
    {
      "id": "54703c30-81cc-442b-9f1d-20ba9670be8a",
      "name": "H",
      "accesses": [
        "e0112881-65f6-4548-ad52-2d51007ef038"
      ],
      "abilities": {
        "get": true,
        "patch": true,
        "put": true,
        "delete": true,
        "manage_accesses": true
      },
      "slug": "h",
      "created_at": "2024-09-25T13:25:14.638540Z",
      "updated_at": "2024-09-25T13:25:14.638555Z"
    },
    {
      "id": "6a938c79-9463-4211-bf79-6920d08485bf",
      "name": "G",
      "accesses": [
        "7a0cb387-d9bd-45cb-bf44-d232fc017ec8"
      ],
      "abilities": {
        "get": true,
        "patch": true,
        "put": true,
        "delete": true,
        "manage_accesses": true
      },
      "slug": "g",
      "created_at": "2024-09-25T13:25:11.435327Z",
      "updated_at": "2024-09-25T13:25:11.435369Z"
    },
    {
      "id": "8be39b20-0c29-46d2-af1e-24063774bc17",
      "name": "F",
      "accesses": [
        "19ac7659-5006-4e57-b3e2-efcbd5d76bfd"
      ],
      "abilities": {
        "get": true,
        "patch": true,
        "put": true,
        "delete": true,
        "manage_accesses": true
      },
      "slug": "f",
      "created_at": "2024-09-25T13:25:08.345871Z",
      "updated_at": "2024-09-25T13:25:08.345887Z"
    },
    {
      "id": "7e672574-43fc-4d3a-8408-06003850b762",
      "name": "E",
      "accesses": [
        "ee5cf587-3a07-4152-aad9-342bca763dd1"
      ],
      "abilities": {
        "get": true,
        "patch": true,
        "put": true,
        "delete": true,
        "manage_accesses": true
      },
      "slug": "e",
      "created_at": "2024-09-25T13:25:05.673605Z",
      "updated_at": "2024-09-25T13:25:05.673622Z"
    },
    {
      "id": "343c3a0f-4b89-4d57-9f3c-6df5e476deaa",
      "name": "D",
      "accesses": [
        "6add6052-4512-402b-9bc4-14da87f2bef2"
      ],
      "abilities": {
        "get": true,
        "patch": true,
        "put": true,
        "delete": true,
        "manage_accesses": true
      },
      "slug": "d",
      "created_at": "2024-09-25T13:25:03.375757Z",
      "updated_at": "2024-09-25T13:25:03.375798Z"
    },
    {
      "id": "97b8390c-575e-43a7-b092-07d0101a97f0",
      "name": "C",
      "accesses": [
        "675bd9e5-8f58-4d50-878c-a01328ec4ae7"
      ],
      "abilities": {
        "get": true,
        "patch": true,
        "put": true,
        "delete": true,
        "manage_accesses": true
      },
      "slug": "c",
      "created_at": "2024-09-25T13:25:00.617953Z",
      "updated_at": "2024-09-25T13:25:00.617970Z"
    },
    {
      "id": "19d1556f-b9a9-4355-a9be-bdc7e6755e46",
      "name": "B",
      "accesses": [
        "12f80ef7-2d64-4cd9-a951-b478062b7e15"
      ],
      "abilities": {
        "get": true,
        "patch": true,
        "put": true,
        "delete": true,
        "manage_accesses": true
      },
      "slug": "b",
      "created_at": "2024-09-25T13:24:58.032950Z",
      "updated_at": "2024-09-25T13:24:58.032966Z"
    },
    {
      "id": "9c8c2d68-5126-4e48-97a9-864d21d16c85",
      "name": "A",
      "accesses": [
        "5d35325c-e33b-406d-86ad-eea2164e80e1"
      ],
      "abilities": {
        "get": true,
        "patch": true,
        "put": true,
        "delete": true,
        "manage_accesses": true
      },
      "slug": "a",
      "created_at": "2024-09-25T13:24:54.932324Z",
      "updated_at": "2024-09-25T13:24:54.932372Z"
    },
    {
      "id": "13c1ed43-0cc7-448c-b4af-c6f590f06c40",
      "name": "Test 765",
      "accesses": [
        "c12ba9af-1b12-4a10-9027-e97c40643da5"
      ],
      "abilities": {
        "get": true,
        "patch": true,
        "put": true,
        "delete": true,
        "manage_accesses": true
      },
      "slug": "test-765",
      "created_at": "2024-09-18T08:24:04.049505Z",
      "updated_at": "2024-09-18T08:24:04.049536Z"
    },
    {
      "id": "1fb65b96-12d6-49fc-9206-54f6d428a7c7",
      "name": "Test 87",
      "accesses": [
        "149f3b73-8ffa-46d7-a334-b8cfb8573af1"
      ],
      "abilities": {
        "get": true,
        "patch": true,
        "put": true,
        "delete": true,
        "manage_accesses": true
      },
      "slug": "test-87",
      "created_at": "2024-09-18T08:23:59.363944Z",
      "updated_at": "2024-09-18T08:23:59.363969Z"
    },
    {
      "id": "f654ae23-b862-4fe1-9e02-c11999b3becf",
      "name": "Test 98",
      "accesses": [
        "308cc7fe-4514-405f-b8a1-76756aa7ef1b"
      ],
      "abilities": {
        "get": true,
        "patch": true,
        "put": true,
        "delete": true,
        "manage_accesses": true
      },
      "slug": "test-98",
      "created_at": "2024-09-18T08:23:49.924055Z",
      "updated_at": "2024-09-18T08:23:49.924081Z"
    },
    {
      "id": "ac03ea55-197f-4b6d-8dd9-ef5727d49831",
      "name": "Test 13",
      "accesses": [
        "50df3278-fd23-42cc-8350-ab078d789e57"
      ],
      "abilities": {
        "get": true,
        "patch": true,
        "put": true,
        "delete": true,
        "manage_accesses": true
      },
      "slug": "test-13",
      "created_at": "2024-09-18T08:23:43.152027Z",
      "updated_at": "2024-09-18T08:23:43.152053Z"
    }
  ]
}